%YAML 1.1
%TAG !u! tag:unity3d.com,2011:
--- !u!74 &7400000
AnimationClip:
  m_ObjectHideFlags: 0
  m_PrefabParentObject: {fileID: 0}
  m_PrefabInternal: {fileID: 0}
  m_Name: BananaAnimation
  serializedVersion: 6
  m_Legacy: 0
  m_Compressed: 0
  m_UseHighQualityCurve: 1
  m_RotationCurves: []
  m_CompressedRotationCurves: []
  m_EulerCurves:
  - curve:
      serializedVersion: 2
      m_Curve:
      - time: 0
        value: {x: 0, y: 0, z: 0}
        inSlope: {x: -0, y: 360.00003, z: 0}
        outSlope: {x: -0, y: 360.00003, z: 0}
        tangentMode: 0
      - time: 0.25
        value: {x: -0, y: 90.00001, z: 0}
        inSlope: {x: 0, y: 360.00006, z: 0}
        outSlope: {x: 0, y: 360.00006, z: 0}
        tangentMode: 0
      - time: 0.5
        value: {x: -0, y: 180.00003, z: 0}
        inSlope: {x: 0, y: 360.00012, z: 0}
        outSlope: {x: 0, y: 360.00012, z: 0}
        tangentMode: 0
      - time: 0.75
        value: {x: -0, y: 270.00006, z: 0}
        inSlope: {x: 0, y: 359.99994, z: 0}
        outSlope: {x: 0, y: 359.99994, z: 0}
        tangentMode: 0
      - time: 1
        value: {x: -0, y: 360, z: -0}
        inSlope: {x: 0, y: 359.99988, z: 0}
        outSlope: {x: 0, y: 359.99988, z: 0}
        tangentMode: 0
      - time: 1.25
        value: {x: -0, y: 450, z: -0}
        inSlope: {x: 0, y: 360, z: 0}
        outSlope: {x: 0, y: 360, z: 0}
        tangentMode: 0
      - time: 1.5
        value: {x: -0, y: 540, z: -0}
        inSlope: {x: 0, y: 360, z: 0}
        outSlope: {x: 0, y: 360, z: 0}
        tangentMode: 0
      - time: 1.75
        value: {x: -0, y: 630, z: -0}
        inSlope: {x: 0, y: 360, z: 0}
        outSlope: {x: 0, y: 360, z: 0}
        tangentMode: 0
      - time: 2
        value: {x: -0, y: 720, z: -0}
        inSlope: {x: 0, y: 360, z: 0}
        outSlope: {x: 0, y: 360, z: 0}
        tangentMode: 0
      m_PreInfinity: 2
      m_PostInfinity: 2
      m_RotationOrder: 4
    path: Hover9K_v2.0
  - curve:
      serializedVersion: 2
      m_Curve:
      - time: 0
        value: {x: 0, y: 0, z: 0}
        inSlope: {x: 0, y: 360, z: 0}
        outSlope: {x: 0, y: 360, z: 0}
        tangentMode: 0
      - time: 0.25
        value: {x: 0, y: 90, z: 0}
        inSlope: {x: 0, y: 360, z: 0}
        outSlope: {x: 0, y: 360, z: 0}
        tangentMode: 0
      - time: 0.5
        value: {x: 0, y: 180, z: 0}
        inSlope: {x: 0, y: 360, z: 0}
        outSlope: {x: 0, y: 360, z: 0}
        tangentMode: 0
      - time: 0.75
        value: {x: 0, y: 270, z: 0}
        inSlope: {x: 0, y: 360, z: 0}
        outSlope: {x: 0, y: 360, z: 0}
        tangentMode: 0
      - time: 1
        value: {x: 0, y: 360, z: 0}
        inSlope: {x: 0, y: 360, z: 0}
        outSlope: {x: 0, y: 360, z: 0}
        tangentMode: 0
      - time: 1.25
        value: {x: 0, y: 450, z: 0}
        inSlope: {x: 0, y: 360, z: 0}
        outSlope: {x: 0, y: 360, z: 0}
        tangentMode: 0
      - time: 1.5
        value: {x: 0, y: 540, z: 0}
        inSlope: {x: 0, y: 360, z: 0}
        outSlope: {x: 0, y: 360, z: 0}
        tangentMode: 0
      - time: 1.75
        value: {x: 0, y: 630, z: 0}
        inSlope: {x: 0, y: 360, z: 0}
        outSlope: {x: 0, y: 360, z: 0}
        tangentMode: 0
      - time: 2
        value: {x: 0, y: 720, z: 0}
        inSlope: {x: 0, y: 360, z: 0}
        outSlope: {x: 0, y: 360, z: 0}
        tangentMode: 0
      m_PreInfinity: 2
      m_PostInfinity: 2
      m_RotationOrder: 4
    path: Effects
  m_PositionCurves: []
  m_ScaleCurves: []
  m_FloatCurves:
  - curve:
      serializedVersion: 2
      m_Curve:
      - time: 0
        value: 210
        inSlope: 0
        outSlope: 0
        tangentMode: 10
      - time: 0.25
        value: 210
        inSlope: 0
        outSlope: 0
        tangentMode: 10
      - time: 0.75
        value: 210
        inSlope: 0
        outSlope: 0
        tangentMode: 10
      - time: 1
        value: 210
        inSlope: 0
        outSlope: 0
        tangentMode: 10
      - time: 1.25
        value: 210
        inSlope: 0
        outSlope: 0
        tangentMode: 10
      - time: 1.5
        value: 210
        inSlope: -140
        outSlope: -140
        tangentMode: 10
      - time: 1.75
        value: 140
        inSlope: -280
        outSlope: -280
        tangentMode: 10
      - time: 2
        value: 70
        inSlope: -280
        outSlope: -280
        tangentMode: 10
      m_PreInfinity: 2
      m_PostInfinity: 2
      m_RotationOrder: 4
    attribute: m_Mass
    path: 
    classID: 54
    script: {fileID: 0}
  m_PPtrCurves: []
  m_SampleRate: 60
  m_WrapMode: 0
  m_Bounds:
    m_Center: {x: 0, y: 0, z: 0}
    m_Extent: {x: 0, y: 0, z: 0}
  m_ClipBindingConstant:
    genericBindings:
    - path: 721581900
      attribute: 4
      script: {fileID: 0}
      classID: 4
      customType: 14
      isPPtrCurve: 0
    - path: 2276853046
      attribute: 4
      script: {fileID: 0}
      classID: 4
      customType: 14
      isPPtrCurve: 0
    - path: 0
      attribute: 1386139257
      script: {fileID: 0}
      classID: 54
      customType: 0
      isPPtrCurve: 0
    pptrCurveMapping: []
  m_AnimationClipSettings:
    serializedVersion: 2
    m_AdditiveReferencePoseClip: {fileID: 0}
    m_AdditiveReferencePoseTime: 0
    m_StartTime: 0
    m_StopTime: 2
    m_OrientationOffsetY: 0
    m_Level: 0
    m_CycleOffset: 0
    m_HasAdditiveReferencePose: 0
    m_LoopTime: 1
    m_LoopBlend: 0
    m_LoopBlendOrientation: 0
    m_LoopBlendPositionY: 0
    m_LoopBlendPositionXZ: 0
    m_KeepOriginalOrientation: 0
    m_KeepOriginalPositionY: 1
    m_KeepOriginalPositionXZ: 0
    m_HeightFromFeet: 0
    m_Mirror: 0
  m_EditorCurves:
  - curve:
      serializedVersion: 2
      m_Curve:
      - time: 0
        value: 0
        inSlope: -0
        outSlope: -0
        tangentMode: 10
      - time: 0.25
        value: -0
        inSlope: 0
        outSlope: 0
        tangentMode: 10
      - time: 0.5
        value: -0
        inSlope: 0
        outSlope: 0
        tangentMode: 10
      - time: 0.75
        value: -0
        inSlope: 0
        outSlope: 0
        tangentMode: 10
      - time: 1
        value: -0
        inSlope: 0
        outSlope: 0
        tangentMode: 10
      - time: 1.25
        value: -0
        inSlope: 0
        outSlope: 0
        tangentMode: 10
      m_PreInfinity: 2
      m_PostInfinity: 2
      m_RotationOrder: 4
    attribute: localEulerAnglesRaw.x
    path: Hover9K_v2.0
    classID: 4
    script: {fileID: 0}
  - curve:
      serializedVersion: 2
      m_Curve:
      - time: 0
        value: 0
        inSlope: 360.00003
        outSlope: 360.00003
        tangentMode: 10
      - time: 0.25
        value: 90.00001
        inSlope: 360.00006
        outSlope: 360.00006
        tangentMode: 10
      - time: 0.5
        value: 180.00003
        inSlope: 360.00012
        outSlope: 360.00012
        tangentMode: 10
      - time: 0.75
        value: 270.00006
        inSlope: 359.99994
        outSlope: 359.99994
        tangentMode: 10
      - time: 1
        value: 360
        inSlope: 359.99988
        outSlope: 359.99988
        tangentMode: 10
      - time: 1.25
        value: 450
        inSlope: 360
        outSlope: 360
        tangentMode: 10
      - time: 1.5
        value: 540
        inSlope: 360
        outSlope: 360
        tangentMode: 10
      - time: 1.75
        value: 630
        inSlope: 360
        outSlope: 360
        tangentMode: 10
      - time: 2
        value: 720
        inSlope: 360
        outSlope: 360
        tangentMode: 10
      m_PreInfinity: 2
      m_PostInfinity: 2
      m_RotationOrder: 4
    attribute: localEulerAnglesRaw.y
    path: Hover9K_v2.0
    classID: 4
    script: {fileID: 0}
  - curve:
      serializedVersion: 2
      m_Curve:
      - time: 0
        value: 0
        inSlope: 0
        outSlope: 0
        tangentMode: 10
      - time: 0.25
        value: 0
        inSlope: 0
        outSlope: 0
        tangentMode: 10
      - time: 0.5
        value: 0
        inSlope: 0
        outSlope: 0
        tangentMode: 10
      - time: 0.75
        value: 0
        inSlope: 0
        outSlope: 0
        tangentMode: 10
      - time: 1
        value: -0
        inSlope: 0
        outSlope: 0
        tangentMode: 10
      - time: 1.25
        value: -0
        inSlope: 0
        outSlope: 0
        tangentMode: 10
      m_PreInfinity: 2
      m_PostInfinity: 2
      m_RotationOrder: 4
    attribute: localEulerAnglesRaw.z
    path: Hover9K_v2.0
    classID: 4
    script: {fileID: 0}
  - curve:
      serializedVersion: 2
      m_Curve:
      - time: 0
        value: 0
        inSlope: 0
        outSlope: 0
        tangentMode: 10
      - time: 1
        value: 0
        inSlope: 0
        outSlope: 0
        tangentMode: 10
      m_PreInfinity: 2
      m_PostInfinity: 2
      m_RotationOrder: 4
    attribute: localEulerAnglesRaw.x
    path: Effects
    classID: 4
    script: {fileID: 0}
  - curve:
      serializedVersion: 2
      m_Curve:
      - time: 0
        value: 0
        inSlope: 360
        outSlope: 360
        tangentMode: 10
      - time: 0.25
        value: 90
        inSlope: 360
        outSlope: 360
        tangentMode: 10
      - time: 0.5
        value: 180
        inSlope: 360
        outSlope: 360
        tangentMode: 10
      - time: 0.75
        value: 270
        inSlope: 360
        outSlope: 360
        tangentMode: 10
      - time: 1
        value: 360
        inSlope: 360
        outSlope: 360
        tangentMode: 10
      - time: 1.25
        value: 450
        inSlope: 360
        outSlope: 360
        tangentMode: 10
      - time: 1.5
        value: 540
        inSlope: 360
        outSlope: 360
        tangentMode: 10
      - time: 1.75
        value: 630
        inSlope: 360
        outSlope: 360
        tangentMode: 10
      - time: 2
        value: 720
        inSlope: 360
        outSlope: 360
        tangentMode: 10
      m_PreInfinity: 2
      m_PostInfinity: 2
      m_RotationOrder: 4
    attribute: localEulerAnglesRaw.y
    path: Effects
    classID: 4
    script: {fileID: 0}
  - curve:
      serializedVersion: 2
      m_Curve:
      - time: 0
        value: 0
        inSlope: 0
        outSlope: 0
        tangentMode: 10
      - time: 1
        value: 0
        inSlope: 0
        outSlope: 0
        tangentMode: 10
      m_PreInfinity: 2
      m_PostInfinity: 2
      m_RotationOrder: 4
    attribute: localEulerAnglesRaw.z
    path: Effects
    classID: 4
    script: {fileID: 0}
  - curve:
      serializedVersion: 2
      m_Curve:
      - time: 0
        value: 210
        inSlope: 0
        outSlope: 0
        tangentMode: 10
      - time: 0.25
        value: 210
        inSlope: 0
        outSlope: 0
        tangentMode: 10
      - time: 0.75
        value: 210
        inSlope: 0
        outSlope: 0
        tangentMode: 10
      - time: 1
        value: 210
        inSlope: 0
        outSlope: 0
        tangentMode: 10
      - time: 1.25
        value: 210
        inSlope: 0
        outSlope: 0
        tangentMode: 10
      - time: 1.5
        value: 210
        inSlope: -140
        outSlope: -140
        tangentMode: 10
      - time: 1.75
        value: 140
        inSlope: -280
        outSlope: -280
        tangentMode: 10
      - time: 2
        value: 70
        inSlope: -280
        outSlope: -280
        tangentMode: 10
      m_PreInfinity: 2
      m_PostInfinity: 2
      m_RotationOrder: 4
    attribute: m_Mass
    path: 
    classID: 54
    script: {fileID: 0}
  m_EulerEditorCurves:
  - curve:
      serializedVersion: 2
      m_Curve: []
      m_PreInfinity: 2
      m_PostInfinity: 2
      m_RotationOrder: 4
    attribute: m_LocalEulerAngles.z
    path: Hover9K_v2.0
    classID: 4
    script: {fileID: 0}
  - curve:
      serializedVersion: 2
      m_Curve: []
      m_PreInfinity: 2
      m_PostInfinity: 2
      m_RotationOrder: 4
    attribute: m_LocalEulerAngles.y
    path: Hover9K_v2.0
    classID: 4
    script: {fileID: 0}
  - curve:
      serializedVersion: 2
      m_Curve: []
      m_PreInfinity: 2
      m_PostInfinity: 2
      m_RotationOrder: 4
    attribute: m_LocalEulerAngles.x
    path: Hover9K_v2.0
    classID: 4
    script: {fileID: 0}
  - curve:
      serializedVersion: 2
      m_Curve: []
      m_PreInfinity: 2
      m_PostInfinity: 2
      m_RotationOrder: 4
    attribute: m_LocalEulerAngles.x
    path: Effects
    classID: 4
    script: {fileID: 0}
  - curve:
      serializedVersion: 2
      m_Curve: []
      m_PreInfinity: 2
      m_PostInfinity: 2
      m_RotationOrder: 4
    attribute: m_LocalEulerAngles.y
    path: Effects
    classID: 4
    script: {fileID: 0}
  - curve:
      serializedVersion: 2
      m_Curve: []
      m_PreInfinity: 2
      m_PostInfinity: 2
      m_RotationOrder: 4
    attribute: m_LocalEulerAngles.z
    path: Effects
    classID: 4
    script: {fileID: 0}
  m_HasGenericRootTransform: 0
  m_HasMotionFloatCurves: 0
  m_GenerateMotionCurves: 0
  m_Events: []
